module gitlab.com/mohan43u/statusd/mod/statusd

go 1.19

require (
	github.com/adrg/xdg v0.4.0
	github.com/gen2brain/beeep v0.0.0-20230907135156-1a38885a97fc
	github.com/godbus/dbus v4.1.0+incompatible
)

require (
	github.com/go-toast/toast v0.0.0-20190211030409-01e6764cf0a4 // indirect
	github.com/godbus/dbus/v5 v5.1.0 // indirect
	github.com/nu7hatch/gouuid v0.0.0-20131221200532-179d4d0c4d8d // indirect
	github.com/tadvi/systray v0.0.0-20190226123456-11a2b8fa57af // indirect
	golang.org/x/sys v0.6.0 // indirect
)
